<svg id="Расчёт_на_консультацию" xmlns="http://www.w3.org/2000/svg" xmlns:xlink="http://www.w3.org/1999/xlink" width="1920" height="590" viewBox="0 0 1920 590">
    <style>
        .st0{clip-path:url(#SVGID_2_)}.st1{fill:#98c14d}.st2{fill:#435c32}.st3{fill:#819545}.st4{fill:#6a954b}.st5{fill:#436b3c}.st6{fill:#7bb050}.st7{fill:#3b502b}.st8{fill:#37542f}.st9{fill:url(#XMLID_2_)}.st10{fill:url(#XMLID_3_)}.st11{opacity:.2}.st12{fill:#d65a5f}.st13{fill:#704191}
    </style>
    <defs>
        <path id="SVGID_1_" d="M1920 805c-636-99.7-1284-99.7-1920 0V74.8c636-99.7 1284-99.7 1920 0V805z"/>
    </defs>
    <use xlink:href="#SVGID_1_" overflow="visible" fill="#fff"/>
    <clipPath id="SVGID_2_">
        <use xlink:href="#SVGID_1_" overflow="visible"/>
    </clipPath>
    <g id="XMLID_5_" class="st0">
        <g id="XMLID_45_">
            <path id="XMLID_49_" class="st1" d="M352.7 114.3c7.7-8.9 15.7-18.2 19.4-29.5 1.5-4.6 2.3-9.4 3.2-14.1 1.5-7.6 3.5-15.1 4.5-22.6 1-8.2 2.8-16.3 6.5-23.7 1.4-2.8 3.1-5.7 4.7-8.5.7-1.3 6.5-7.7 6.4-8.3 2.6 21.7 5.1 44.5-2.8 64.8-7.4 18.9-23.5 33.7-41.9 41.9z"/>
            <path id="XMLID_48_" class="st2" d="M374 59.4c-23.4 37.9-58.5 68.2-99 85.4 18.8-12.2 37.8-24.6 53.2-41.1 17.6-18.8 29.7-42.2 41.7-65.2 5.7-10.9 11.3-21.9 17-32.8.3-.5.5-1 .8-1.5h11.5c-1.9 13.8-9 26.9-15.9 39.2-3 5.3-6 10.7-9.3 16z"/>
            <path id="XMLID_47_" class="st3" d="M428.9 51.9c3.3 10.6 1.9 22.6 6.7 32.6-19.8-20.9-29.6-51.2-26.3-80.4h1.4c1.1 9.7 3.9 19.2 8.3 27.8 3.4 6.7 7.6 12.9 9.9 20z"/>
            <path id="XMLID_46_" class="st3" d="M335.8 57.4c-6.7 18.8-21 33.1-37.2 40.7 6.9-8.7 13.9-17.7 17.4-28.9 1.4-4.5 2.2-9.3 3-14 1.4-7.5 3.3-14.9 4.2-22.4 1-8.2 2.7-16.2 6-23.5.9-2 2-4.1 3-6.1h7.8c1.5 18.6 1.9 37.4-4.2 54.2z"/>
        </g>
        <path id="XMLID_44_" class="st4" d="M1416.3-5.5c.8 3.7 4.9 17.9-.3 19.8-3.4 1.2-6.6-4-8.2-6.1-5-6.5-10.9-6.9-18.8-5.9-14.1 3.1-24 17.5-22.5 31.3.1 1.1.5 2.5 1.6 2.9.5.2 1 .2 1.5.1 4.2-.6 7.1-4.2 10-7.2 4.6-4.7 10.3-8.5 16.7-10.3 2.9-.8 6.1-1.1 8.8.2s4.4 4.6 3 7.3c-1.6 3-5.7 3.3-9.1 3.6-13.6 1-30.9 8.1-31.9 23-.2 3.1-1.2 25.1 5.9 21.8 4.2-1.9 8.3-8.8 11.9-11.9 4.1-3.6 8.6-6.8 13.3-9.7 2-1.2 4.4-2.3 6.5-1.4-1.4 6.1-6.9 10.4-11.9 14.5-5.2 4.3-10.3 9-13.5 14.9-3.3 5.9-3.5 11.4-2.6 17.7.4 3.1 1.3 10.1 5.6 10.5 1.5.1 3-.9 3.8-2.1.8-1.3 1.2-2.8 1.6-4.2 3.4-13.4 10.5-26.6 22.3-34.3 1.3-.9 2.9-1.7 4.5-1.5 10.4 1.2-11.9 23.1-14.1 25.4-5.2 5.5-8.9 11.1-10.7 18.3-1.7 6.8.6 12 4.6 17.7 2.1 2.9 6.7 9.2 10.7 4.9 1-1.1 1.5-2.5 1.9-3.9 3.2-10.9 5.9-21.9 12.2-31.7.8-1.3 2-2.8 3.6-2.8 7.6.3-3.3 18.6-4.8 21.2-3.1 5.4-4.1 10.3-5.3 16.4-.9 4.5-2.3 9.3.6 13.3 2.1 2.8 6 4.9 8.4 1.1 1-1.5 1.2-3.3 1.5-5 .5-3.9.9-25 6.9-30.2 1.2-1.1 2.7-1.5 4.4-1 1.2.4 1.9 1.7 1.9 3s-.5 2.5-1.1 3.6c-4.6 10-14.3 27.3-4.7 37.2 4.8 4.9 11.1 8.2 17.4 10.8 1 .4 2.1.8 3.1.4.8-.3 1.4-.9 2-1.6 3.2-3.7 6.4-7.5 9.6-11.2 7.6-8.8 6.1-19.5-1-28-2.7-3.2-12.9-8.8-11.9-13.7.9-4.5 6.8-2.7 9.3-1 6 4.2 9.5 12.6 12 19.1 1 2.5 1.8 5.1 3.6 7.1 3 3.2 5.3-2 6.3-4.5 3.9-10.5-2.9-19.7-10.5-26.4-2-1.8-22.8-16.4-21.9-17 2.2-1.3 4.9-.1 7.1 1.1 12.3 6.9 22.8 13.9 30.5 25.8 1.5 2.4 2.9 5.5 5.5 1.3 3.6-5.5 2.9-13.6-1.1-18.7-6.4-8.2-16-12.4-25.5-16.4-4-1.6-9.9-3.1-13.2-5.9-2.7-2.4-3.2-6.7 1.4-7.5 6.8-1.2 15.8 4.8 20.8 8.5 6.3 4.7 11.4 10.9 17.8 15.5 3.1 2.2 6.7 4.8 9.4.8 1.5-2.3 1.7-6.5 1.2-9-.6-3.6-3.5-6.4-6.5-8.5-6.9-5-15.3-8-23.2-11.1-5.1-2-11.3-2.1-15.9-4.9-3.9-2.3-3.2-6.5 2-5.2 12.6 3.2 24.6 8.6 35.2 15.9 5 3.4 11.2 5.8 10.9-2.4-.1-4.1-1.9-8.7-3.8-12.3-3.9-7.3-13-7.9-20.6-9.1-3.4-.5-30.5-.7-27.7-7.4.2-.4.5-.7.8-1 1.7-1.4 4-.9 6-.6 10 1.5 19.5 3.4 29.3 5.6 2 .4 4 .9 6 .4 8.1-1.9.9-13.4-1.2-17.3-2.8-5.3-6.8-10.4-12.6-12.8-5.8-2.4-11-1-16.7 1.2l-13.8 5.4c-2.3.9-4.7 1.8-7.1 1.4-.7-.1-1.4-.4-1.8-.9-.7-.9-.2-2.2.4-3.2 2.7-4.3 8.2-6.2 13.2-7.2 6.6-1.4 13.4-2.1 19.8-4.1 1.9-.6 4.1-1.6 4.7-3.5.4-1.3 0-2.7-.6-3.9-2.3-5.3-6.3-8.8-11.4-11.5-6.1-3.3-13.3-4.9-20.7-4.6-6.5.3-16.4 2.9-19.4 9.5-2 4.4-1.3 9.1-1 13.5.1 1.8 2 11.8-2.8 9.8-1.7-.7-2.2-2.6-2.5-4.3-2-10-2.8-20.3-3.9-30.5-.5-4.7-.5-9.4-.9-14.1h-7.9c1 4.6 2.1 8.6 2.5 9.8 1.7 5.8 3.8 11.8 5.1 17.9z"/>
        <path id="XMLID_43_" class="st5" d="M149.4 59.2c7.2-2.7 14.1-6.2 20.6-10.3L157.7 66c-1.2 1.7-2.4 3.4-2.5 5.5-.1 2.1 1.1 4 2.3 5.7 5.3 7.5 11.4 14.3 18.4 20.3 3.1 2.6 6.4 5.2 10.4 5.9 7.7 1.3 14.5-4.5 20-9.9-2 4-4.1 8-6.1 12-.4.9-.9 1.9-.7 2.8.2.8.8 1.4 1.4 2 5.2 4.9 10.3 9.7 15.5 14.6 5.5 5.2 11.9 10.7 19.4 10.3 4.5-7.7 7.3-16.5 8.1-25.4.5 9.8-.6 19.7-3.4 29.2 11.8 3.2 23.5 7.1 34.9 11.7 1.4-6.8 2.9-13.7 4.3-20.5 1.5-7.1 3-14.2 3.9-21.4 1.4-11.3 1-23.3-.4-34.6-6.5-.6-13-1.6-19.4-3.2 5.5-1.9 11.1-3.1 16.9-3.8-.3-2.5-.5-4.9-.8-7.4-5.1.9-10.4 1-15.5.3.3-1.4 1.9-2.1 3.3-2.5 3.2-1 6.4-2 9.5-3-1.5-10.7-4.8-21.7-7.4-32.2-.8-3.1-1.6-6.3-2.4-9.4-5.2 1-10.5 1.5-15.9 1.6 4.4-2.1 8.9-4.2 13.3-6.4 2.1-1-6.7-16.7-7.7-18.2-.4-.6-.9-1.2-1.3-1.8H153.5c-7.5 9.4-12.9 20.5-14.6 32.3-2 13.6 1.5 28.2 10.5 38.7z"/>
        <path id="XMLID_42_" class="st6" d="M857.2 85.8v.4-.4z"/>
        <g id="XMLID_33_">
            <path id="XMLID_41_" class="st7" d="M97.3 23.8l4.7 1.3-.9 27.8-6.1-3.6-.4 2.8 4.1 4.9-2.3 11.3-5.9 9.3-10.9-1.1-1.3 2.2 1.3 2.1h11.3L72 111.9l-21.7 24.6-5.9-1.2-1.3 1.8 4.1 4.3-6.5 6.3-4.9.1-1.3 1.7 3.4 2.5-42.4 30.7-2.6-.5.1-4.2 11.8-8.6-1.5-2.4-7.6 2.8 1.7-3.9 9.3-1.4-.6-2.3-10.6 1.5-.3-4.8 14.4-2.3-1.2-3-15.4 2.6.7-5.1 24.1-4.3.1-2-26.5 3.6.2-5.2 19.1-3.2 2.3-2.1-20.4 2.7.6-4.7 35.7-6.1 1-2.6-35.5 5.2 3-7.3 27.9-3.5 4.9-1.6-3.8-3-27.6 4.4 1.4-6.5 32.7-2.6 4.2-3.1-3-2.5L1 110.5l12.8-28.2 33.5-2.2 6.1-1.3-4.9-3.8L16 77.9l13.1-20.7 30.1 1.9 5-1.6-3-4.1-29.7-1 10.3-20.7 39.6-34 2.7-5.4L89-1.9l11.8 22.8-2.6.8z"/>
            <path id="XMLID_38_" class="st3" d="M168.5 27l7.1 2.3 4.8 11.6-.1 11.5-11.6 4.7v2.6l2.7 1.3 11.3-5.9.4 38.2-6.4 33.6-6.6 2-.3 2.3 6.9 1.8-2.7 9.2-4.9 2.6-.2 2.2 5.1.5-23.5 50-2.9.9-2.6-3.9 6.5-14-3-1.4-5.9 6.6-.7-4.5 8.5-6.1-2-1.8-9.7 6.8-3.4-4.1 13.1-9.6-3.1-2.1-13.9 10.4-2.5-5.1 21.6-16.3-1.2-1.9-24.3 17-3-4.9 17-12.8 1.1-3.1-18.8 13-2.3-4.6 32.1-24-.7-3-32.5 23.2-1.5-8.2 25.9-17.6 3.9-4.1-5.7-.7-25 18.3-2.6-6.6 31.2-19.4 2.3-5-4.5-.7-30.9 20.6-4.9-32.3 32.4-19.4 5.3-4.4-7.3-.9-30.8 19.5.2-25.6 31.4-13.9 4-4.1-5.5-2.2-30.5 14.6-2.5-24.3 18.5-51.5-.7-6.4 8.5 2.8 26.1 14.7-2.1 2 .5 2.4 5.5-1.2 16.4 25.7h-8.3z"/>
            <path id="XMLID_37_" class="st2" d="M284.3 42.5l-54.6-.3-28.5-4.5-46.8-22.2-40-43.4 33.7 4.4 35.8 11.3-6 16.8 8.9-15.4 27.7 8.6-7 13.5-3.5 10.5 1.8.4 6.7-12 4.1-11.5 28.8 7.1L230.6 28l.4 2.3 8.6-8.4 8.8-15.2 40 6.2-12.6 18.8-.9 3.4L292.3 14l14.2-.3-15.1 19.8 18.1-19.2 2.8-.1 2.8 6.6-11 14.7 11.7-13 6 14.5z"/>
            <path id="XMLID_36_" class="st2" d="M290.6-12.7l-5.6-7.7.3 7.5-21.9 6-6.5-11.6v14l-32 1.7V-14l-3.4 2.6-3 9.4-51.6-6.4-40.4-12.3 38.3-29.7L197-62.7l1.3 22.5 3.7 2.4 1.2-26.2 40.2-8.2-1.9 29.7 4.7.5 4.8-30.4 24.5-1.8 5.4 12.8-1 12.4 2.2 1.6 1.8-6.7 15.7 37.8z"/>
            <path id="XMLID_34_" class="st3" d="M30.4 21.5l-1-8.4 27.3 1.8L30.8 9l-.5-5.7 2.4.3 25.5 3-26-7.6-.5-11.6 29.7 9.1L31.9-15l-1.6-5.3 21.6 3.6-21.6-6.5 4-5.2 18.1 5-6.3-6.9 8-9.7 15.1 2.1 8 7.3 3.2-7.2 5.8.6.4 6.9L90-37l16.3.4-4.9 9.1 10.4-7.8 11.9.4-10.2 11.2 15.3-9.2 20.7-.8s-44 48.9-46.9 49.2l-72.2 6z"/>
        </g>
        <g id="XMLID_23_">
            <path id="XMLID_32_" class="st2" d="M1331 95.4c-10.3 17.3-19.9 36.7-32.7 52.3 13.2-16 26.4-32 39.6-47.9 2.2-2.6 4.1-5.2 6-7.9 11.9-17.2 17.7-35.6 20.7-57 .7-4.9-.4-10.6-1.3-15.4-.3-1.8-2.9-8.5-3.6-11.9h-1c-5.4 11.3-4.9 24.2-5.8 36.4-1.4 18.3-12.7 36-21.9 51.4z"/>
            <path id="XMLID_31_" class="st3" d="M1344.7 33.1c-.8 6.1-2.5 12-3.7 18.1-.8 3.8-1.4 7.6-2.7 11.3-3.1 9-9.6 16.4-16 23.6 15.2-6.6 28.5-18.4 34.6-33.6 5.6-14.1 4.8-29.7 3.1-44.9h-6.2c-1.3 2.2-2.6 4.4-3.8 6.6-3 5.9-4.5 12.3-5.3 18.9z"/>
            <path id="XMLID_30_" class="st3" d="M1419.9 53.9c-8.4-5.2-16.4-11.1-23.7-17.7-5.4-4.9-7.7-10.4-11.9-15.9-2.9-3.8-6.4-7.3-10.4-9.8h-8.2c2.2 9 5.2 17.1 10.2 24.5 8.6 12.5 28.2 24.6 44 18.9z"/>
            <path id="XMLID_29_" class="st2" d="M1310.5 59.4c-7.3 9.4-17.4 16.5-27.4 23.5 2.7-1.9 7.6-2.8 10.7-4.2 3.5-1.6 6.8-3.4 10.1-5.3 6.8-4 13-8.7 18.7-13.9 11.4-10.3 22.4-23.8 26.2-38.4 1.2-4.5 2-9 3-13.5h-4.5c-11.2 12.2-20.4 26-29 39.9-2.4 4-4.9 8.1-7.8 11.9z"/>
            <path id="XMLID_28_" class="st1" d="M1333.5 39.6c-9.8 18.4-19.8 37-34.4 52.1-12.7 13.1-28.4 23-43.9 32.8 33.4-13.8 62.3-37.9 81.6-68.2 2.7-4.2 5.2-8.5 7.7-12.8 6.5-11.2 13.2-23.2 13.5-35.9h-6.8c-1.4 1.8-2.6 3.9-3.7 5.9-4.7 8.6-9.4 17.3-14 26.1z"/>
            <path id="XMLID_27_" class="st3" d="M1412.1 85.2c-7.8-8.1-10.1-20-16.6-29.2-4.4-6.2-10.5-10.9-15.9-16.2-8.3-8.3-14.8-18.4-18.9-29.3h-.1c4.2 31 23.8 59.5 51.5 74.7z"/>
            <path id="XMLID_26_" class="st3" d="M1289.8 59.1c-9.5 9.7-20.4 18.5-27.1 30.3 4.1-7.2 14.7-13.3 21.2-18.2 7.8-5.9 15.8-11.6 22.8-18.5 11.8-11.7 19.4-28.5 20-45.2h-3.5c-1.6 4.4-3 8.9-5.2 13-7.5 14.2-17 27.2-28.2 38.6z"/>
            <path id="XMLID_25_" class="st3" d="M1318.7 27c-2.5 5.6-5.8 10.8-8.6 16.2-1.8 3.4-3.5 6.9-5.7 10-5.4 7.8-13.1 13.1-20.6 18.2 14.6-2.2 29.3-9.9 39-22.9 8.9-11.7 13-26.4 16.3-41.1h-7.4c-1 1-1.9 1.9-2.8 2.9-4.2 4.9-7.5 10.7-10.2 16.7z"/>
        </g>
        <path id="XMLID_22_" class="st3" d="M462.6 33.8c-4.2 1.6-9.3-2.8-11.8-4.5-7.8-5.3-15.5-4.9-25.5-2.8-17.6 4.9-27.4 19.8-22.7 32.5.4 1.1 1.1 2.2 2.6 2.5.6.1 1.3 0 2-.1 5.2-1.2 8.3-4.9 11.5-8.1 5-5 11.5-9.5 19.4-12 3.6-1.2 7.7-1.9 11.4-1.1 3.7.8 6.6 3.7 5.4 6.3-1.4 3-6.6 3.9-10.9 4.6-17.4 2.9-38.2 12-36.5 26.1.3 3 3.5 23.7 12 19.6 5-2.4 9-9.5 13-12.9 4.6-3.9 9.7-7.6 15.1-10.9 2.3-1.4 5.2-2.8 8.1-2.2-.6 5.9-6.8 10.7-12.3 15.2-5.9 4.8-11.4 9.9-14.4 15.9s-2.2 11.1.3 16.9c1.2 2.9 3.7 9.2 9.4 9 2-.1 3.7-1.2 4.5-2.5.8-1.3 1-2.8 1.1-4.2 1.6-13 8.1-26.4 21.8-35.3 1.6-1 3.4-2 5.5-2.1 13.6-.3-10.6 23.3-13.1 25.8-5.7 5.9-9.2 11.7-10.1 18.7-.8 6.6 3.2 11.2 9.4 15.9 3.2 2.4 10.5 7.7 14.7 3.1 1.1-1.2 1.4-2.6 1.6-4 2-10.6 3.2-21.3 9.4-31.4.8-1.4 2-2.9 4.1-3.1 9.8-.8-.5 17.9-1.9 20.5-2.9 5.4-3.1 10.2-3.5 16.1-.2 4.4-1.1 9 3.4 12.3 3.2 2.4 8.7 3.7 11.1-.2.9-1.5 1-3.2.9-4.9-.1-3.7-3.9-23.5 2.8-29.3 1.3-1.2 3.1-1.8 5.4-1.5 1.7.2 2.8 1.3 3.1 2.5.3 1.2-.2 2.4-.7 3.6-3.9 10-13 27.6 1.5 35.4 7.1 3.8 16 6.1 24.7 7.6 1.3.2 2.8.4 4.1 0 1-.4 1.6-1.1 2.2-1.8 3.4-3.9 6.7-7.9 10.1-11.8 8-9.3 3.9-19.1-7-26-4.1-2.6-18.4-6.4-18.2-11.1.3-4.4 8.2-3.5 11.8-2.2 8.6 3.1 14.8 10.4 19.3 16.1 1.8 2.2 3.4 4.5 6.1 6.1 4.6 2.6 6.5-2.6 7.2-5.1 2.9-10.4-7.7-18-18.8-23.2-2.9-1.4-32.7-12.1-31.7-12.7 2.5-1.6 6.3-.8 9.4 0 17.3 4.7 32.2 9.8 44.5 19.7 2.5 2 4.8 4.7 7.4.5 3.5-5.7.9-13.1-5.2-17.3-9.9-6.7-23.1-9.3-36.1-11.6-5.5-1-13.4-1.4-18.2-3.6-4-1.8-5.5-5.8.3-7.2 8.5-2.1 21.3 2.2 28.5 4.9 9.1 3.5 16.9 8.5 26.1 11.9 4.5 1.6 9.6 3.5 12.2-.6 1.5-2.3.9-6.3-.2-8.6-1.5-3.3-5.8-5.4-10-7-9.9-3.6-21.3-5.3-32.2-7-6.9-1.1-14.9-.4-21.5-2.3-5.5-1.6-5.5-5.6 1.5-5.1 16.9 1.2 33.4 4.6 48.6 9.8 7.1 2.5 15.5 3.8 13.6-3.8-1-3.8-4.2-7.8-7.4-10.9-6.5-6.3-18.4-5.5-28.3-5.5-4.4 0-39.4 3.7-37.2-2.9.1-.4.4-.7.8-1 2-1.6 4.9-1.4 7.6-1.4 13.2-.1 25.9.4 38.9 1 2.6.1 5.3.2 7.8-.5 10.1-2.9-1.6-12.6-5-16-4.7-4.6-10.9-8.7-18.9-10.1-8-1.4-14.3.6-21.2 3.5-5.6 2.4-11.1 4.7-16.7 7.1-2.7 1.2-5.7 2.4-8.8 2.3-.9 0-1.8-.2-2.4-.6-1.1-.8-.8-2.1-.2-3.1 2.6-4.4 9.3-6.9 15.6-8.7 8.2-2.2 16.8-3.9 24.6-6.7 2.4-.9 4.9-2.1 5.3-4 .2-.9-.2-1.8-.8-2.6h-68.4c0 .1-.1.1-.1.2-1.6 4.4.2 8.7 1.5 12.8.5 1.6 5 10.7-1.7 9.6-2.3-.4-3.4-2.1-4.1-3.6-3.1-6.2-5.6-12.5-7.9-18.9h-4.6c.8 1.3 1.6 2.7 2.3 4 1.8 2.8 10.1 15.5 3.7 18z"/>
        <path id="XMLID_21_" class="st8" d="M1697 45.7c-.2.9-.7 1.7-1.3 2.4 1.1 1.1 1.9 2.6 2.9 3.8.3-1 .4-2.1.6-3.1-.3 2.5 1 5.4 3.4 6.1 0-.7 0-1.4.1-2.1.1 1.5 1.1 2.9 2.4 3.6 1 .5 2.2.6 3 1.3.5-1.4 1-2.8 1.5-4.3-.5-.8-.9-1.6-1.2-2.5.6.4 1.2 1 1.8 1.5.1-1.4.5-2.8 1.1-4.1-.6-.6-1.2-1.2-1.9-1.8.6.1 1.1.3 1.7.4.7-1 .9-2.5.4-3.6-.5-1.2-1.7-2-3-2.2.7.1 1.3.1 2 .2-.7-1.9-2.4-3.5-4.3-4.3-.6-.2-1.1-.4-1.7-.4-2.8-.3-5 .6-6.8 2.7-.9 1-1.8 2.2-2.3 3.5-.3.8.1 3.8-.2 4.1.6-.4 1.2-.9 1.8-1.2z"/>
        <g id="XMLID_15_">
            <g id="XMLID_17_">
                <path id="XMLID_20_" class="st1" d="M1498.6 17.8c-1.4 6-3.2 13-2.7 19.2 2 27 7.7 50.4 20.8 72.8 2 3.5 4.3 6.9 6.7 10.3 14.8 20.9 29.6 41.8 44.3 62.8-14.4-20.4-24.5-45.3-35.8-67.7-10-19.9-22.4-42.9-22.7-65.9-.1-12.8.9-26.2-2.1-38.7h-5.9c-1.1 3-2.4 6-2.6 7.2z"/>
                <path id="XMLID_19_" class="st3" d="M1477 19.8c-4 5.5-6.3 11-11.5 15.9-7.1 6.6-14.8 12.5-22.9 17.7 15.3 5.8 34.2-6.4 42.5-18.9 4.8-7.3 7.7-15.2 9.8-24h-8.5c-3.7 2.4-6.8 5.7-9.4 9.3z"/>
                <path id="XMLID_18_" class="st3" d="M1534.5 78.4c6.9 6.5 14.5 12.4 22.7 17.4 4 2.4 8.1 4.7 12.3 6.7 3.8 1.8 9.7 2.9 13 5.3-12.1-8.8-24.3-17.7-33.2-29.5-3.6-4.8-6.6-9.9-9.6-15-11-18.6-23-36.9-37.7-52.9h-3.6c1.7 6.6 2.7 13.2 4.3 19.8 4.7 18.4 18 35.3 31.8 48.2z"/>
            </g>
            <path id="XMLID_16_" class="st2" d="M1566.8 86c7.9 6.1 20.8 13.8 25.7 22.8-8.1-14.8-21.3-25.8-32.8-38-13.6-14.3-25.1-30.6-34.1-48.3-2-3.9-3.5-8-4.9-12.1h-5.5c1.8 19.5 10.7 38.7 24 52.4 8.4 8.7 18.1 15.9 27.6 23.2z"/>
        </g>
        <g id="XMLID_7_">
            <linearGradient id="XMLID_2_" gradientUnits="userSpaceOnUse" x1="351.986" y1="571.169" x2="367.016" y2="571.169" gradientTransform="translate(1312.396 -454.035)">
                <stop offset="0" stop-color="#2b3c2d"/>
                <stop offset="1" stop-color="#415b32"/>
            </linearGradient>
            <path id="XMLID_14_" class="st9" d="M1673.6 129.4l5.8-4.3-15-20.3v9.4z"/>
            <path id="XMLID_13_" class="st8" d="M1665.7 96.1l17.8 26.1 21-23.9-19.8-25.6-2.6-5.1 7.2 1.6 18.3 25.2 13-20.3-21.8-20.9-1.6-4.5h6.2L1724 70l14.7-18.3 9.5-46.5 3.9-4.8-9.3-.5-31.6 3.2 1 2.3-1.7 1.8-4.4-2.8-28.4 15 7.7 2.6-2.6 1.8-7.7-.5-10.4 7.6-.3.5v13.4l2.8 2.5-1.4 2.1-1.4.1v46.3z"/>
            <linearGradient id="XMLID_3_" gradientUnits="userSpaceOnUse" x1="351.986" y1="584.691" x2="358.26" y2="584.691" gradientTransform="translate(1312.396 -454.035)">
                <stop offset="0" stop-color="#2b3c2d"/>
                <stop offset="1" stop-color="#415b32"/>
            </linearGradient>
            <path id="XMLID_12_" class="st10" d="M1670.7 132.4l-6.3-9.4v14.2l.7 1.2z"/>
            <path id="XMLID_11_" class="st2" d="M1807 120.5l-5.7-1.1 4.5-2.8.2-15.6-9.3-1.1 7.2-2.2-2.3-15.9-13.4-.5 13.3-4.5-10.2-21-10.6 3.5 1.2-3.1 7.8-4.8-25-31.1-26.6-22-14.2 34 .1 24.6 21.9-6.3 3.6 1.6-24.4 9.1 7 28.5 27.6-10.7 2.2 2.8-27.2 12.8 9.2 20.5 23.7-9.4 2.3.8-24 13.9 6.6 8.6 25.5-12.9-26 16.7 6.8 7.7 25.2-16.5h2.5l-1.9 3.9-26.2 17.1 2.4 3.6 27.3-16-26 19 4.9 6.2 21.8-14-20.9 17.7 4.3 5 15.2-9.1-14.3 12.8 4.6 3.7 10.4-5.4-9.1 8.4 7.2 14.1 17.5-40.3-5.2-2.2 7.4-1.5-.6-3.9-6.3-3.4 6.6.5.8-3.6-7.5-3.4 7.1-.2z"/>
            <path id="XMLID_10_" class="st3" d="M1942.3 122.9l-27.8-54.1-59-46.5-61.4-19.6-60.7 7.3 38.1 22.2 60.1 40 16-7.7-11.6 11 15.5 13.4 18.8-14-1.8 5.6-11.7 11 25.9 21.6 14.1-12.8 3.8-.7-13.7 16.2 7.4 7.2 10.9-10.3 1.3-1.2-9.8 14.1 5.5 6.2 11.1-11.4 2 .7-9.8 12.9 3.6 5.5 7.1-9.1 3.1-.7-8.3 11.7 2.9 4.5 9.8-8.5 2.8.3-9.2 10.1 4 5.3 5.2-4.2.8-.7-2.3 6.9 4.9 6 5.9-1.3-2.1 6.3.6 6 6.3-4.8-4.7 7.5-.3 7.3 4.8-2.2-3 4.7 2.2 9.2h6.7l2.5-16.2z"/>
            <path id="XMLID_9_" class="st3" d="M1914.9 40.6l1.6-9.2-10.3-2 4.3-1.3s-2.4-11.2-3.5-11.1c-1.1.1-11.4-1.3-11.4-1.3l6.1-1.8-36.4-12.1-27.4-4.3-43.1 13.2 2.5 4 13.1 8.1 9.6-7.9-4.5 7.4 9.6 4.2 10.1-7.3-6.9 8.5 17.5 10.1 14.3-13.8h3l-14.8 15.9 13 7.2 11.8-13.2 2.7.3-11.8 14.6 15.1 9.1 9.4-14.5 2.8-1.5-9.1 19.3 8.3 5.5 8-8.9 2 1-7.2 9.1 6.4 5.7 6.8-6.7-4.4 8.3 3.4 3 3.7 7.5 6-17.2-.6-4.2 2.7.3 1.2-19.4-6.1-3.6 2.5-1z"/>
        </g>
        <path id="XMLID_6_" class="st5" d="M1576.6 10.8c-10 6.6-18.4 15.7-22.9 26.8-4.5 11-4.7 23.9.6 34.5 6.6-.8 13.1-2.3 19.4-4.4-4.6 3.9-9.2 7.8-13.9 11.8-1.3 1.1-2.7 2.4-3.2 4.1-.5 1.7.1 3.6.8 5.2 2.8 7.3 6.6 14.3 11.1 20.7 2 2.8 4.3 5.7 7.5 7 6.1 2.7 13-.8 18.8-4.2-2.5 2.9-5.1 5.9-7.6 8.8-.6.6-1.1 1.4-1.1 2.2 0 .7.4 1.3.8 1.9 3.3 5.1 6.6 10.2 9.9 15.4 3.5 5.4 7.7 11.3 14.1 12.6 5.4-5.5 9.5-12.2 12.1-19.5-1.6 8.3-4.7 16.3-9 23.7 9.2 5.1 18.1 10.8 26.7 16.9 2.6-5.4 5.3-10.8 7.9-16.3 2.7-5.6 5.5-11.2 7.7-17 3.5-9.1 5.8-19.3 6.9-29-5.3-1.8-10.6-4-15.5-6.7 5-.4 10-.3 14.9.3l.9-6.3c-4.5-.3-8.9-1.3-13-2.9.5-1.1 2-1.4 3.3-1.4 2.9-.2 5.7-.3 8.6-.5 1-9.3.5-19.1.6-28.4v-8.4c-4.6-.3-9.1-.9-13.6-1.9 4.1-.9 8.3-1.7 12.4-2.6 1.9-.4-2.1-15.3-2.6-16.8-2.1-5.6-5.5-10.2-9.4-14.7-8-9.2-17.9-15.1-30.1-17.5-4.7-.9-9.5-1.3-14.1-2.8-1.3-.4-2.5-1-3.7-1.5h-13.1c-3.1 4.5-8.4 8.4-12.2 10.9z"/>
    </g>
    <g class="st11">
        <path class="st12" d="M199.4 159.3c1.3.7 1 3.8-.7 6.8s-4.1 4.9-5.4 4.2c-1.3-.7-1-3.8.7-6.8 1.7-3.1 4.1-4.9 5.4-4.2z"/>
        <path class="st12" d="M117.9 201.9c1.4.6 1.4 3.6 0 6.8-1.4 3.2-3.6 5.3-5 4.7-1.4-.6-1.4-3.6 0-6.8 1.4-3.2 3.7-5.3 5-4.7z"/>
        <path class="st12" d="M278.4 161.4c.2 1.5-2.4 3.1-5.8 3.6s-6.4-.3-6.6-1.8c-.2-1.5 2.4-3.1 5.8-3.6s6.3.3 6.6 1.8z"/>
        <path class="st12" d="M291.9 183c.4-1.4 3.4-1.9 6.7-1 3.3.9 5.8 2.7 5.4 4.2-.4 1.4-3.4 1.9-6.7 1-3.3-.9-5.7-2.7-5.4-4.2z"/>
        <path class="st12" d="M244.4 217.5c1.1 1 0 3.9-2.3 6.4-2.4 2.5-5.2 3.7-6.3 2.7-1.1-1 0-3.9 2.3-6.4 2.4-2.5 5.2-3.7 6.3-2.7z"/>
        <ellipse transform="rotate(-40.235 321.92 349.836)" class="st12" cx="321.9" cy="349.8" rx="6.3" ry="2.7"/>
        <path class="st12" d="M481.6 342.4c1.2-.9 3.9.5 6 3.2 2.2 2.7 3 5.7 1.8 6.6-1.2.9-3.8-.5-6-3.2-2.1-2.8-2.9-5.7-1.8-6.6z"/>
        <path class="st12" d="M397.5 547.2c.6 1.4-1.4 3.6-4.6 5-3.1 1.4-6.2 1.5-6.8.1-.6-1.4 1.4-3.6 4.6-5 3.2-1.4 6.2-1.5 6.8-.1z"/>
        <ellipse class="st12" cx="421.8" cy="263.7" rx="6.3" ry="2.7"/>
        <ellipse transform="rotate(-100.649 538.652 192.6)" class="st12" cx="538.7" cy="192.6" rx="6.3" ry="2.7"/>
        <ellipse transform="rotate(-56.151 747.125 158.666)" class="st12" cx="747.1" cy="158.7" rx="6.3" ry="2.7"/>
        <path class="st12" d="M851.8 168.3c1.5 0 2.7 2.8 2.7 6.3s-1.2 6.3-2.7 6.2c-1.5 0-2.7-2.8-2.7-6.3 0-3.4 1.3-6.2 2.7-6.2z"/>
        <ellipse transform="rotate(-122.466 957.135 198.884)" class="st12" cx="957.1" cy="198.9" rx="6.3" ry="2.7"/>
        <ellipse transform="rotate(-21.634 1301.901 168.786)" class="st12" cx="1302" cy="168.8" rx="6.3" ry="2.7"/>
        <path class="st12" d="M1354.1 187.9c.8-1.3 3.8-.8 6.7 1 2.9 1.8 4.7 4.3 3.9 5.6-.8 1.3-3.8.8-6.7-1-3-1.8-4.7-4.3-3.9-5.6z"/>
        <path class="st12" d="M125.2 377.9c1-1.1 3.9 0 6.4 2.4 2.5 2.4 3.7 5.2 2.7 6.3-1 1.1-3.9 0-6.4-2.4-2.5-2.4-3.7-5.3-2.7-6.3z"/>
        <path class="st13" d="M1007.5 157c2.5-3.6-2.4-7.4.1-11 2.1 0 4.2 0 6.3.1-2.5 3.6 2.4 7.4-.1 11-2.1 0-4.2-.1-6.3-.1z"/>
        <path class="st13" d="M1165.6 147.8c3.7 2.4 7.3-2.7 11-.2 0 2.1.1 4.2.1 6.3-3.7-2.4-7.3 2.7-11 .2 0-2.1-.1-4.2-.1-6.3z"/>
        <path class="st13" d="M1319.1 231.1c2.8 3.4 7.7-.4 10.6 3-.6 2-1.1 4-1.7 6-2.8-3.4-7.7.4-10.6-3 .5-1.9 1.1-3.9 1.7-6z"/>
        <path class="st13" d="M885 174c4.4-.7 3.7-6.8 8.1-7.5 1.4 1.5 2.8 3.1 4.3 4.6-4.4.7-3.7 6.8-8.1 7.5-1.4-1.6-2.9-3.1-4.3-4.6z"/>
        <path class="st13" d="M642.7 157.2c3.5 2.8 7.5-2 11 .8-.2 2.1-.3 4.2-.5 6.3-3.5-2.8-7.5 2-11-.8.2-2.1.4-4.2.5-6.3z"/>
        <path class="st13" d="M628.5 569.2c4.4.4 5.2-5.7 9.7-5.3 1 1.8 2 3.7 3 5.5-4.4-.4-5.2 5.7-9.7 5.3-1-1.9-2-3.7-3-5.5z"/>
        <path class="st13" d="M351.5 325.9c3.8-2.4.6-7.7 4.4-10.1 1.9.8 3.8 1.7 5.8 2.5-3.8 2.4-.6 7.7-4.4 10.1-1.9-.9-3.8-1.7-5.8-2.5z"/>
        <path class="st13" d="M130.3 231.2c-3-3.3-7.7.8-10.7-2.5.5-2 .9-4.1 1.4-6.1 3 3.3 7.7-.8 10.7 2.5-.5 2.1-.9 4.1-1.4 6.1z"/>
        <path class="st13" d="M349 186.1c4.3-1.2 2.8-7.2 7.1-8.4 1.6 1.4 3.2 2.7 4.8 4.1-4.3 1.2-2.8 7.2-7.1 8.4-1.7-1.4-3.2-2.8-4.8-4.1z"/>
        <path class="st13" d="M389.4 158.8c4.4-.6 3.7-6.8 8.1-7.4 1.4 1.5 2.8 3.1 4.2 4.6-4.4.6-3.7 6.8-8.1 7.4-1.4-1.5-2.8-3.1-4.2-4.6z"/>
        <path class="st13" d="M502.7 281.2c1.5-4.2-4.3-6.5-2.7-10.7 2-.5 4.1-1 6.1-1.6-1.5 4.2 4.3 6.5 2.7 10.7-2 .6-4.1 1.1-6.1 1.6z"/>
        <path class="st13" d="M343.6 533.3c4.4-.7 3.6-6.9 8-7.5 1.4 1.5 2.9 3 4.3 4.6-4.4.7-3.6 6.9-8 7.5-1.4-1.6-2.9-3.1-4.3-4.6z"/>
        <path class="st13" d="M134.3 438.4c4.4.7 5.6-5.4 10-4.6.9 1.9 1.8 3.8 2.6 5.7-4.4-.7-5.6 5.4-10 4.6-.9-1.9-1.8-3.8-2.6-5.7z"/>
        <ellipse transform="rotate(-28.523 1267.286 227.32)" class="st12" cx="1267.3" cy="227.3" rx="6.3" ry="2.7"/>
        <path class="st12" d="M1258.7 173.8c1.4-.5 3.5 1.6 4.8 4.8 1.3 3.2 1.2 6.3-.2 6.8s-3.5-1.6-4.8-4.8c-1.3-3.2-1.2-6.3.2-6.8z"/>
        <path class="st13" d="M179.7 236c1-4.3-5-5.9-4-10.2 1.9-.8 3.9-1.5 5.8-2.3-1 4.3 5 5.9 4 10.2-2 .7-3.9 1.5-5.8 2.3z"/>
        <path class="st13" d="M175.8 558.8c-3.7-2.5-7.3 2.5-11 0v-6.3c3.7 2.5 7.3-2.5 11 0v6.3z"/>
        <ellipse transform="rotate(-28.526 171.308 586.159)" class="st12" cx="171.3" cy="586.2" rx="6.3" ry="2.7"/>
        <ellipse transform="rotate(-91.056 132.421 170.666) scale(.99997)" class="st12" cx="132.4" cy="170.7" rx="6.3" ry="2.7"/>
        <path class="st12" d="M1579.4 159.3c1.3.7 1 3.8-.7 6.8s-4.1 4.9-5.4 4.2c-1.3-.7-1-3.8.7-6.8 1.7-3.1 4.1-4.9 5.4-4.2z"/>
        <path class="st12" d="M1497.9 201.9c1.4.6 1.4 3.6 0 6.8-1.4 3.2-3.6 5.3-5 4.7-1.4-.6-1.4-3.6 0-6.8 1.4-3.2 3.7-5.3 5-4.7z"/>
        <path class="st12" d="M1658.4 161.4c.2 1.5-2.4 3.1-5.8 3.6s-6.4-.3-6.6-1.8c-.2-1.5 2.4-3.1 5.8-3.6s6.3.3 6.6 1.8z"/>
        <path class="st12" d="M1671.9 183c.4-1.4 3.4-1.9 6.7-1 3.3.9 5.8 2.7 5.4 4.2-.4 1.4-3.4 1.9-6.7 1-3.3-.9-5.7-2.7-5.4-4.2z"/>
        <path class="st12" d="M1624.4 217.5c1.1 1 0 3.9-2.3 6.4-2.4 2.5-5.2 3.7-6.3 2.7-1.1-1 0-3.9 2.3-6.4 2.4-2.5 5.2-3.7 6.3-2.7z"/>
        <ellipse transform="rotate(-40.235 1702.018 349.835)" class="st12" cx="1701.9" cy="349.8" rx="6.3" ry="2.7"/>
        <path class="st12" d="M1777.5 547.2c.6 1.4-1.4 3.6-4.6 5-3.1 1.4-6.2 1.5-6.8.1-.6-1.4 1.4-3.6 4.6-5 3.2-1.4 6.2-1.5 6.8-.1z"/>
        <ellipse class="st12" cx="1801.8" cy="263.7" rx="6.3" ry="2.7"/>
        <path class="st12" d="M1505.2 377.9c1-1.1 3.9 0 6.4 2.4 2.5 2.4 3.7 5.2 2.7 6.3-1 1.1-3.9 0-6.4-2.4-2.5-2.4-3.7-5.3-2.7-6.3z"/>
        <path class="st13" d="M1731.5 325.9c3.8-2.4.6-7.7 4.4-10.1 1.9.8 3.8 1.7 5.8 2.5-3.8 2.4-.6 7.7-4.4 10.1-1.9-.9-3.8-1.7-5.8-2.5z"/>
        <path class="st13" d="M1510.3 231.2c-3-3.3-7.7.8-10.7-2.5.5-2 .9-4.1 1.4-6.1 3 3.3 7.7-.8 10.7 2.5-.5 2.1-.9 4.1-1.4 6.1z"/>
        <path class="st13" d="M1729 186.1c4.3-1.2 2.8-7.2 7.1-8.4 1.6 1.4 3.2 2.7 4.8 4.1-4.3 1.2-2.8 7.2-7.1 8.4-1.7-1.4-3.2-2.8-4.8-4.1z"/>
        <path class="st13" d="M1769.4 158.8c4.4-.6 3.7-6.8 8.1-7.4 1.4 1.5 2.8 3.1 4.2 4.6-4.4.6-3.7 6.8-8.1 7.4-1.4-1.5-2.8-3.1-4.2-4.6z"/>
        <path class="st13" d="M1723.6 533.3c4.4-.7 3.6-6.9 8-7.5 1.4 1.5 2.9 3 4.3 4.6-4.4.7-3.6 6.9-8 7.5-1.4-1.6-2.9-3.1-4.3-4.6z"/>
        <path class="st13" d="M1514.3 438.4c4.4.7 5.6-5.4 10-4.6.9 1.9 1.8 3.8 2.6 5.7-4.4-.7-5.6 5.4-10 4.6-.9-1.9-1.8-3.8-2.6-5.7z"/>
        <ellipse transform="rotate(-40.235 1442 329.834)" class="st12" cx="1441.9" cy="329.8" rx="6.3" ry="2.7"/>
        <path class="st12" d="M1245.2 357.9c1-1.1 3.9 0 6.4 2.4 2.5 2.4 3.7 5.2 2.7 6.3-1 1.1-3.9 0-6.4-2.4-2.5-2.4-3.7-5.3-2.7-6.3z"/>
        <path class="st13" d="M1471.5 305.9c3.8-2.4.6-7.7 4.4-10.1 1.9.8 3.8 1.7 5.8 2.5-3.8 2.4-.6 7.7-4.4 10.1-1.9-.9-3.8-1.7-5.8-2.5z"/>
        <path class="st13" d="M1254.3 418.4c4.4.7 5.6-5.4 10-4.6.9 1.9 1.8 3.8 2.6 5.7-4.4-.7-5.6 5.4-10 4.6-.9-1.9-1.8-3.8-2.6-5.7z"/>
        <path class="st13" d="M1559.7 236c1-4.3-5-5.9-4-10.2 1.9-.8 3.9-1.5 5.8-2.3-1 4.3 5 5.9 4 10.2-2 .7-3.9 1.5-5.8 2.3z"/>
        <path class="st13" d="M1555.8 558.8c-3.7-2.5-7.3 2.5-11 0v-6.3c3.7 2.5 7.3-2.5 11 0v6.3z"/>
        <ellipse transform="rotate(-28.526 1551.19 586.131)" class="st12" cx="1551.3" cy="586.2" rx="6.3" ry="2.7"/>
        <ellipse transform="rotate(-91.056 1512.42 170.666) scale(.99997)" class="st12" cx="1512.4" cy="170.7" rx="6.3" ry="2.7"/>
    </g>
</svg>
