<svg xmlns="http://www.w3.org/2000/svg" xmlns:xlink="http://www.w3.org/1999/xlink" width="113" height="48" viewBox="0 0 113 48">
    <defs>
        <path id="a" d="M1198.76 384.88a4.89 4.89 0 1 1-9.77 0 4.89 4.89 0 0 1 9.77 0"/>
        <path id="b" d="M1182.53 342v6.4a14.86 14.86 0 0 1 9.88 14.05c0 8.22-6.56 14.89-14.66 14.89-8.1 0-14.68-6.67-14.68-14.89 0-6.52 4.13-12.03 9.89-14.05V342a20.99 20.99 0 0 0-15.96 20.45c0 11.63 9.29 21.04 20.75 21.04 11.45 0 20.74-9.41 20.74-21.04 0-9.94-6.82-18.25-15.96-20.44"/>
        <path id="c" d="M1213 353.66c0-2.17 1.6-3.66 3.64-3.66 1.51 0 2.39.85 2.87 1.73l-1.25.64a1.85 1.85 0 0 0-1.62-1.03c-1.24 0-2.14.98-2.14 2.32 0 1.34.9 2.33 2.14 2.33.71 0 1.33-.45 1.62-1.03l1.25.62a3.14 3.14 0 0 1-2.87 1.74 3.54 3.54 0 0 1-3.64-3.66"/>
        <path id="d" d="M1221 356.5V350h4.88v1.22h-3.41v1.38h3.34v1.22h-3.34v1.47h3.41v1.22H1221"/>
        <path id="e" d="M1229.09 356.5v-5.28H1227V350h5.7v1.22h-2.08v5.29h-1.53"/>
        <path id="f" d="M1234 356.5h1.63V350H1234z"/>
        <path id="g" d="M1238 356.2l.8-1.15a3 3 0 0 0 2.2.95c.8 0 1.2-.38 1.2-.78 0-1.26-3.98-.4-3.98-3.06 0-1.18 1-2.16 2.62-2.16 1.1 0 2.01.34 2.7.99l-.82 1.1a2.93 2.93 0 0 0-2.01-.77c-.64 0-.99.28-.99.71 0 1.13 3.97.37 3.97 3.02 0 1.3-.9 2.27-2.76 2.27a3.9 3.9 0 0 1-2.93-1.12"/>
        <path id="h" d="M1216.33 367.3h-1.88v-1.5h1.88c.57 0 .88.35.88.76 0 .47-.33.75-.88.75zm-.05-2.7h-1.83v-1.41h1.83c.49 0 .8.3.8.71s-.31.7-.8.7zm-3.28 3.9h3.7c1.3 0 2-.77 2-1.75 0-.82-.59-1.5-1.32-1.6a1.46 1.46 0 0 0 1.18-1.5c0-.86-.66-1.65-1.96-1.65h-3.6z"/>
        <path id="i" d="M1223.07 364.98h-1.57v-1.76h1.57c.6 0 1.05.33 1.05.88 0 .54-.45.88-1.05.88zm.9 3.53h1.72l-1.58-2.48a1.9 1.9 0 0 0 1.54-1.93c0-1.21-.9-2.1-2.36-2.1H1220v6.5h1.5v-2.3h1.1z"/>
        <path id="j" d="M1231.76 366.19h-2.2l1.1-2.8zm.85 2.32h1.71l-2.71-6.51h-1.88l-2.73 6.5h1.71l.45-1.1h3.02z"/>
        <path id="k" d="M1240.39 368.5l-3.04-4.24v4.25H1236V362h1.4l2.94 4.09V362h1.35v6.5h-1.3"/>
        <path id="l" d="M1245.77 367.29h-1.27v-4.07h1.27c1.45 0 2.2.89 2.2 2.04 0 1.1-.8 2.03-2.2 2.03zm-2.77 1.22h2.77c2.2 0 3.74-1.29 3.74-3.25s-1.53-3.26-3.74-3.26H1243z"/>
        <path id="m" d="M1251 368.5h1.63V362H1251z"/>
        <path id="n" d="M1259.39 368.5l-3.04-4.24v4.25H1255V362h1.4l2.94 4.09V362h1.35v6.5h-1.3"/>
        <path id="o" d="M1263 365.66a3.51 3.51 0 0 1 3.62-3.66c1.41 0 2.3.74 2.8 1.58l-1.2.68c-.3-.5-.88-.93-1.6-.93-1.24 0-2.13 1-2.13 2.33s.9 2.32 2.13 2.32c.6 0 1.17-.28 1.44-.54v-.85h-1.79v-1.32h3.24V368a3.7 3.7 0 0 1-2.9 1.33 3.53 3.53 0 0 1-3.61-3.66"/>
        <path id="p" d="M1216.77 378.19h-2.2l1.1-2.8zm.84 2.32h1.71l-2.71-6.51h-1.88l-2.73 6.5h1.71l.45-1.1h3.02z"/>
        <path id="q" d="M1220 377.66a3.51 3.51 0 0 1 3.62-3.66c1.41 0 2.3.74 2.8 1.58l-1.2.68a1.9 1.9 0 0 0-1.6-.92c-1.24 0-2.13.98-2.13 2.32 0 1.33.9 2.32 2.13 2.32.6 0 1.17-.28 1.44-.54v-.85h-1.79v-1.32h3.24V380c-.7.8-1.66 1.33-2.9 1.33a3.53 3.53 0 0 1-3.61-3.66"/>
        <path id="r" d="M1229 380.5V374h4.88v1.22h-3.41v1.38h3.34v1.22h-3.34v1.47h3.41v1.22H1229"/>
        <path id="s" d="M1239.39 380.5l-3.04-4.24v4.25H1235V374h1.4l2.94 4.09V374h1.35v6.5h-1.3"/>
        <path id="t" d="M1243 377.66c0-2.17 1.6-3.66 3.64-3.66 1.51 0 2.39.85 2.87 1.73l-1.25.64a1.85 1.85 0 0 0-1.62-1.03c-1.24 0-2.14.98-2.14 2.32 0 1.34.9 2.32 2.14 2.32.71 0 1.33-.44 1.62-1.02l1.25.62a3.14 3.14 0 0 1-2.87 1.74 3.53 3.53 0 0 1-3.64-3.66"/>
        <path id="u" d="M1253.56 380.5v-2.66L1251 374h1.61l1.65 2.62 1.64-2.62h1.6l-2.53 3.84v2.67h-1.41"/>
    </defs>
    <use fill="#ff23a4" xlink:href="#a" transform="translate(-1157 -342)"/>
    <use fill="#ff23a4" xlink:href="#b" transform="translate(-1157 -342)"/>
    <use fill="#ff23a4" xlink:href="#c" transform="translate(-1157 -342)"/>
    <use fill="#ff23a4" xlink:href="#d" transform="translate(-1157 -342)"/>
    <use fill="#ff23a4" xlink:href="#e" transform="translate(-1157 -342)"/>
    <use fill="#ff23a4" xlink:href="#f" transform="translate(-1157 -342)"/>
    <use fill="#ff23a4" xlink:href="#g" transform="translate(-1157 -342)"/>
    <use fill="#ff23a4" xlink:href="#h" transform="translate(-1157 -342)"/>
    <use fill="#ff23a4" xlink:href="#i" transform="translate(-1157 -342)"/>
    <use fill="#ff23a4" xlink:href="#j" transform="translate(-1157 -342)"/>
    <use fill="#ff23a4" xlink:href="#k" transform="translate(-1157 -342)"/>
    <use fill="#ff23a4" xlink:href="#l" transform="translate(-1157 -342)"/>
    <use fill="#ff23a4" xlink:href="#m" transform="translate(-1157 -342)"/>
    <use fill="#ff23a4" xlink:href="#n" transform="translate(-1157 -342)"/>
    <use fill="#ff23a4" xlink:href="#o" transform="translate(-1157 -342)"/>
    <use fill="#ff23a4" xlink:href="#p" transform="translate(-1157 -342)"/>
    <use fill="#ff23a4" xlink:href="#q" transform="translate(-1157 -342)"/>
    <use fill="#ff23a4" xlink:href="#r" transform="translate(-1157 -342)"/>
    <use fill="#ff23a4" xlink:href="#s" transform="translate(-1157 -342)"/>
    <use fill="#ff23a4" xlink:href="#t" transform="translate(-1157 -342)"/>
    <use fill="#ff23a4" xlink:href="#u" transform="translate(-1157 -342)"/>
</svg>
