<svg id="Layer_1" xmlns="http://www.w3.org/2000/svg" viewBox="0 0 170 110">
    <style>
        .st0{opacity:.4}.st1{fill:#85c4d2}.st2{fill:#e4a850}.st3{fill:#af4349}.st4{fill:#cd5e68}.st5{fill:#c9c8c7}.st6{fill:#61514d}.st7{fill:#e2e2e0}.st8{fill:#fff}.st9{fill:#f1e83a}.st10{fill:#80623d}.st11{fill:#6b4e2a}.st12{fill:#5d6c38}.st13{fill:#677c3e}.st14{fill:#6e9349}.st15{fill:#e5ab4a}
    </style>
    <g id="XMLID_8476_" class="st0">
        <g id="XMLID_8766_">
            <path id="XMLID_8474_" class="st1" d="M29.9 35.7h1.4v27.1h-1.4z"/>
            <path id="XMLID_8473_" class="st2" d="M31.9 23.6L30.8 20l-1.3 3.5z"/>
            <path id="XMLID_8472_" class="st3" d="M0 39.4c7.1-10 19.7-16.6 30.5-16.6S53.9 29.5 61 39.4c0 0-6.4-1.1-14.1 2.8-10.4-1.9-21.7-2-32.9 0-6.2-3.8-14-2.8-14-2.8z"/>
            <path id="XMLID_8471_" class="st4" d="M30.5 22.7c10.8 0 16.3 19.4 16.3 19.4-10.4-1.9-21.7-2-32.9 0 .1.1 5.7-19.4 16.6-19.4z"/>
            <path id="XMLID_8470_" class="st2" d="M29.5 61.6h2.3v5.7c0 1.5.6 2.6 1.5 3.1.8.4 1.7.4 2.4-.1.8-.5 1.2-1.6 1.2-3 0-.7.4-1.2 1.1-1.3.7 0 1.2.5 1.2 1.1.1 2.2-.7 4.1-2.2 5.1-.8.5-1.6.8-2.5.8-.8 0-1.5-.2-2.3-.6-1.7-.9-2.7-2.9-2.8-5.3 0-2.3 0-5.5.1-5.5 0 .1 0 .1 0 0z"/>
        </g>
        <g id="XMLID_8701_">
            <path id="XMLID_8469_" class="st5" d="M54.5 74.6c.3-2.7-2-3.8-4.4-4.1-1.8-.2-3.5.1-5.3.1-2 0-4.1-.2-6-.9-1.2-.4-2.3-1.1-3.4-1.7-1.6 1.3-2.4 4.2-1.9 5.6-.1.2 3.9 1.9 4.3 2 1.6.6 3.2 1.2 4.9 1.7 2.1.6 4.2 1.1 6.3 1 2-.1 4.6-.7 5.2-2.8.2-.2.3-.6.3-.9z"/>
            <g id="XMLID_8702_">
                <path id="XMLID_8468_" class="st6" d="M38.6 69.6c-1.1-.4-2.1-1-3.1-1.6-1.6 1.3-2.4 4.2-1.9 5.6-.1.2 2 1.1 3.3 1.6 0-2.7.8-4.3 1.7-5.6z"/>
            </g>
        </g>
        <path id="XMLID_8467_" class="st5" d="M75 106.3c.3-.5 2.3-.9 2.9-1.2 2.8-1.3 5.8-3.1 7.7-5.5 1.1-1.4 1.9-3 2.2-4.8.3-2-.3-3.5-1-5.3-.6-1.7-1.3-3.4-1.4-5.2 0-1.2.3-2.3.6-3.4 0 0-1.1-.6-1.2-.6-.1 0-.7 2.5-.8 2.7-.5 2-.1 3.6.3 5.5.7 3 1.2 8.1-2.3 9.8-.8.4-1.9.5-2.8.7l-4.2 7.3z"/>
        <path id="XMLID_8466_" class="st5" d="M47.7 42.4c0-.4.3-4.6 1-4.7.7-.1 2.6 3.8 2.7 4-.3.5-3.2 1.2-3.7.7z"/>
        <path id="XMLID_8465_" class="st6" d="M52.9 41.5s-6.4-8-4.3-8.9c.5-.2 1.1-.1 1.6 0 3.8.3 7.6.4 11.4 1 2.5.4 5 .8 7.3 1.9 1.4.6 2.8 1.6 3.9 2.6 4.1 4.1 4.4 10.1 3.9 15.4-.4 4.7-.8 9.5-.2 14.3.1.8.3 1.6.3 2.3.1.9-5.4-.4-5.4-.4l-10.1-7.3-8.4-20.9z"/>
        <path id="XMLID_8464_" class="st5" d="M60.3 96.9c-.7-2.8-3.3-3.2-5.8-2.7-1.8.4-3.4 1.2-5.2 1.8-2 .6-4.2 1.1-6.3 1-1.4 0-2.7-.4-4-.6-1.1 1.7-1 4.9 0 6.2 0 .3 4.5.7 5 .7 1.8.1 3.6.2 5.4.2 2.3-.1 4.6-.2 6.7-1 1.9-.7 4.4-2.2 4.3-4.4 0-.4 0-.8-.1-1.2z"/>
        <g id="XMLID_8504_">
            <path id="XMLID_8463_" class="st6" d="M42.7 97c-1.2-.1-2.5-.4-3.7-.6-1.1 1.7-1 4.9 0 6.2 0 .2 2.3.5 3.8.6-.8-2.8-.6-4.8-.1-6.2z"/>
        </g>
        <path id="XMLID_8462_" class="st7" d="M32.9 54.6c-.2-.3-.3-.5-.4-.8-2.4-5.8 6.2-9 10.5-10.4 5.1-1.6 10.6-2.7 15.9-2.2 1 .1 3.4.8 4.2 0 0 0 3.6-4.1 4.7-3.6 1.1.5 0 6 0 6.3 0 .9 1.6 2.1 2 2.8.8 1.2 1.3 2.5 1.7 3.9 1.8 5.8 1.5 12.1 2.4 18 .6 4.4 2.6 7.7 4.5 11.8s3.1 8.5 3.5 12.9c.4 4 .4 8.6-1.8 12.2-1 3.1-3.1 1.6-6.3 2.2-3.7.7-7.6.9-11.3.8-2.5-.1-5.2-.4-7.6-1.2-2.3-.8-5-2.2-6.7-4-8.4-9 .1-18.6 3.6-27.3.9-2.3 1.5-5 1.1-7.5-.6-4.2-4-5.3-7.4-7-2.7-1.3-5.6-2.2-8.4-3.2-1.4-.7-3.2-2-4.2-3.7z"/>
        <path id="XMLID_8458_" class="st5" d="M63.4 42.2c.3-.3 3.3-3.4 3.9-3 .6.3-.5 4.5-.5 4.7-.6.2-3.4-1-3.4-1.7z"/>
        <path id="XMLID_8457_" class="st6" d="M49.1 46.4c-.7 0-1.3.5-1.4 1.1v-.3c0-.8.6-1.4 1.4-1.4s1.4.6 1.4 1.4v.3c-.1-.7-.7-1.1-1.4-1.1z"/>
        <path id="XMLID_8456_" class="st6" d="M43.5 58.8c-.6 0-1.1-.3-1.4-.7 0 .7.6 1.3 1.4 1.3s1.4-.6 1.4-1.3c-.3.4-.8.7-1.4.7z"/>
        <g id="XMLID_8494_">
            <path id="XMLID_8455_" class="st6" d="M38.3 45.2c-3.9 1.8-7.6 4.5-5.9 8.7.1.3.3.5.4.8 1 1.6 2.8 2.9 4.5 3.5 1.1.4 2.1.8 3.2 1.1.7-1.6 1-3.4 1-5.2 0-3.4-1.2-6.5-3.2-8.9z"/>
        </g>
        <ellipse id="XMLID_8454_" class="st5" cx="53.4" cy="51.5" rx="2.6" ry="2.5"/>
        <path id="XMLID_8453_" class="st6" d="M70.9 47.6s-1 2.9-10.8 6.8c6.6-4.8 8.5-9.5 8.5-9.5l2.3 2.7z"/>
        <path id="XMLID_8450_" class="st6" d="M73.3 58s-3.3 2.1-11.9 3.3c7.3-3 11.4-6.7 11.4-6.7l.5 3.4z"/>
        <path id="XMLID_8448_" class="st6" d="M74 67s-6.2 2.3-12 1.7c9.6-2.4 12.2-5.1 12.2-5.1L74 67z"/>
        <path id="XMLID_8446_" class="st6" d="M75.8 74.8s-6.3 2.5-12.3 1.4c8.5-1.5 11.2-4.7 11.2-4.7l1.1 3.3z"/>
        <path id="XMLID_8445_" class="st6" d="M79.1 81.7s-6.8 2.5-12.8 1.4c8.5-1.5 11.2-4.7 11.2-4.7l1.6 3.3z"/>
        <path id="XMLID_8444_" class="st6" d="M81.5 90.1s-7.2.8-12.8-1.6c8.6.5 12.1-2 12.1-2l.7 3.6z"/>
        <path id="XMLID_8313_" class="st6" d="M82.2 98.5S75 98 70 94.6c8.3 2 12.2.2 12.2.2v3.7z"/>
        <path id="XMLID_8310_" class="st6" d="M75.1 108.9s-5.8-4.2-8.1-9.8c6.6 5.5 11.1 5.7 11.1 5.7l-3 4.1z"/>
        <ellipse id="XMLID_8238_" class="st8" cx="53.8" cy="95.1" rx="7.2" ry="8.9"/>
        <path id="XMLID_8163_" class="st5" d="M80.2 103.4c-.7-2.8-3.3-3.2-5.8-2.7-1.8.4-3.4 1.2-5.2 1.8-2 .6-4.2 1.1-6.3 1-1.4 0-2.7-.4-4-.6-1.1 1.7-1 4.9 0 6.2 0 .3 4.5.7 5 .7 1.8.1 3.6.2 5.4.2 2.3-.1 4.6-.2 6.7-1 1.9-.7 4.4-2.2 4.3-4.4 0-.5-.1-.8-.1-1.2z"/>
        <g id="XMLID_8481_">
            <path id="XMLID_7969_" class="st6" d="M62.5 103.5c-1.2-.1-2.5-.4-3.7-.6-1.1 1.7-1 4.9 0 6.2 0 .2 2.3.4 3.8.6-.8-2.9-.6-4.8-.1-6.2z"/>
        </g>
        <path id="XMLID_7965_" class="st6" d="M89.3 78.3c-.7 2.2-2.7 3.6-4.3 3.1-1.6-.5-2.4-2.7-1.6-4.9 1.7-1 5.6.5 5.9 1.8z"/>
        <path id="XMLID_7961_" class="st5" d="M75.2 72.1c-1.5-2.3-4-1.9-6.1-.6-1.5.9-2.7 2.1-4.1 3.2-1.6 1.2-3.4 2.2-5.3 2.8-1.2.4-2.5.5-3.8.7-.4 1.9.8 4.7 2.1 5.5.1.2 4.3-.8 4.7-.9 1.6-.5 3.3-.9 4.9-1.5 2-.8 4-1.6 5.7-2.9 1.5-1.2 3.2-3.3 2.4-5.3-.1-.4-.3-.7-.5-1z"/>
        <g id="XMLID_8477_">
            <path id="XMLID_1074_" class="st6" d="M59.6 77.6c-1.1.3-2.3.4-3.5.6-.4 1.9.8 4.7 2.1 5.5.1.2 2.3-.3 3.6-.7-1.7-2.2-2.2-4-2.2-5.4z"/>
        </g>
    </g>
    <g id="XMLID_9269_" class="st0">
        <path id="XMLID_1072_" class="st9" d="M147 104.8c-1.5-11.2-13.4-19.9-27.9-19.9s-26.4 8.8-27.9 19.9H147z"/>
        <g id="XMLID_1061_">
            <g id="XMLID_1062_">
                <path id="XMLID_1071_" class="st10" d="M124.9 17.4c.2 0-4.8 13.8-6.1 29.7-1.9 15.9-.2 33.9 1.6 41.6-5.6 3.1-12 .4-12 .4-1.6-24.8 2.8-49.3 12.7-72.4 1.2.2 2.5.4 3.8.7z"/>
                <path id="XMLID_1070_" class="st11" d="M121.1 16.6c.7.2 1.4.3 2.1.5-4.5 10.8-14 38.5-9.8 73-2.9-.2-5.1-1.1-5.1-1.1-1.5-24.8 2.8-49.2 12.8-72.4z"/>
                <g id="XMLID_1063_">
                    <path id="XMLID_1069_" class="st12" d="M159.5 17.9c7.7 5.6 10.5 10.6 10.5 10.6s-.9 4.7-12.8-3.5c-.5-.4-1.1-.7-1.6-1.1l-5-6.9.3 4c-1.8-1-3.5-1.9-5.2-2.7l-4.8-4.9.8 3.4c-5.5-1.7-10.8-1.5-16.4 1.4-2 1.1-2.7-.7-2.7-.7s15.2-14.8 36.9.4z"/>
                    <path id="XMLID_1068_" class="st13" d="M123.8 17s32.5 2.6 39.7 30.3c-1.4.4-6.3-2.8-12.1-7.2l-4.2-7.1-.2 3.8c-2.1-1.6-4.3-3.3-6.4-5l-.8-6.2-2 4c-6.5-5.1-12.1-9.6-14.6-10.7-1.4-2.1.6-1.9.6-1.9z"/>
                    <path id="XMLID_1067_" class="st12" d="M91.7.2c-9.8 1-15 3.9-15 3.9s-2 4.4 12.9 3.2c.7-.1 1.3-.1 2-.1l8.3-3.4L97.3 7c2.1 0 4.1 0 6 .2l7-1.9-2.7 2.5c5.7 1.2 10 3.9 13 9.2 1.1 1.9 2.7.7 2.7.7S119-2.2 91.7.2z"/>
                    <path id="XMLID_1066_" class="st13" d="M122.6 16.7s-29-13.6-51.4 6.4c1 1.1 6.9.6 14.4-.3l7.8-4-2 3.3c2.7-.4 5.6-.8 8.4-1.2l4.4-4.8-.7 4.3c8.5-1.2 15.9-2.2 18.6-1.9 2.3-1 .5-1.8.5-1.8z"/>
                    <path id="XMLID_1065_" class="st14" d="M123.1 17.2c-.1-.3-32.1 4-38 26.1-1.1 3.2 2.8-.4 8.4-5.6l3.1-7.1.1 4c1.8-1.6 3.7-3.3 5.5-4.9l2.3-5.1.1 3.1c4.3-3.5 8.5-6.2 11.6-6.6 2.6-.5 7.5-1.3 6.9-3.9z"/>
                    <path id="XMLID_1064_" class="st14" d="M123.1 17.2c.3-.2 24.9 18.9 17 40.5-1 3.2-2.1-1.7-3.8-8.9l1.5-7.5-2.5 3.3c-.5-2.2-1.1-4.6-1.8-6.8l1.1-5.4-1.9 2.6c-1.6-5-3.6-9.4-6-11.2-1.9-1.7-5.7-4.6-3.6-6.6z"/>
                </g>
            </g>
        </g>
        <path class="st15" d="M81.9 93.3c.2 1.5.2 3.2.2 4.8 3.4-1.7 2.9-6.7 2.2-9.7-.1-.5-.2-.9-.3-1.4-1 .4-2 .7-2.9 1.1.3 1.7.6 3.5.8 5.2z"/>
        <path class="st15" d="M112.7 82.2c-9.8 0-19 1.5-27 4.1.3 1 .6 2 1 3 .7 1.8 1.3 3.3 1 5.3-.3 1.8-1.1 3.4-2.2 4.8-1.2 1.5-2.8 2.8-4.5 3.8-.2.6-.5 1.2-.8 1.8-.3 1.9-2.5 3.2-4.2 3.8-2.1.8-4.4.9-6.7 1h97.4c-3.2-15.4-26.1-27.6-54-27.6z"/>
    </g>
</svg>
