<svg data-name="Layer 1" xmlns="http://www.w3.org/2000/svg" viewBox="0 0 105 29.5">
    <path d="M101 28.45c-32.3 1.4-64.7 1.4-97 0a4.26 4.26 0 0 1-4-4.2v-19a4.26 4.26 0 0 1 4-4.2c32.3-1.4 64.7-1.4 97 0a4.26 4.26 0 0 1 4 4.2v19a4.26 4.26 0 0 1-4 4.2z" fill="#e9ef18"/>
</svg>
