<svg id="Layer_1" xmlns="http://www.w3.org/2000/svg" viewBox="0 0 540 230">
    <style>
        .st0{fill:#fff}
    </style>
    <path class="st0" d="M486.8 3.9a6029.34 6029.34 0 0 0-433.6 0c-22 .9-44.8 20.4-48.3 43.3-6.6 45.2-6.6 90.4 0 135.6 3.4 22.9 26.3 42.4 48.3 43.3 144.5 5.2 289.1 5.2 433.6 0 22-.9 44.8-20.4 48.3-43.3 6.6-45.2 6.6-90.4 0-135.6-3.5-22.9-26.3-42.4-48.3-43.3z"/>
</svg>
